<?xml version="1.0" encoding="UTF-8" standalone="no"?>
<!-- Created with Inkscape (http://www.inkscape.org/) -->

<svg
   xmlns:dc="http://purl.org/dc/elements/1.1/"
   xmlns:cc="http://creativecommons.org/ns#"
   xmlns:rdf="http://www.w3.org/1999/02/22-rdf-syntax-ns#"
   xmlns:svg="http://www.w3.org/2000/svg"
   xmlns="http://www.w3.org/2000/svg"
   xmlns:xlink="http://www.w3.org/1999/xlink"
   xmlns:sodipodi="http://sodipodi.sourceforge.net/DTD/sodipodi-0.dtd"
   xmlns:inkscape="http://www.inkscape.org/namespaces/inkscape"
   width="1611.25"
   height="683.23438"
   id="svg2"
   version="1.1"
   inkscape:version="0.48.3.1 r9886"
   sodipodi:docname="jjtree2.svg"
   inkscape:export-filename="C:\home\zerbst\Subversion\svnITS\toolsAndLibs\trunk\joveDL\jjtree2.png"
   inkscape:export-xdpi="90"
   inkscape:export-ydpi="90">
  <defs
     id="defs4">
    <linearGradient
       inkscape:collect="always"
       id="linearGradient3793">
      <stop
         style="stop-color:#eeeeec;stop-opacity:1;"
         offset="0"
         id="stop3795" />
      <stop
         style="stop-color:#eeeeec;stop-opacity:0;"
         offset="1"
         id="stop3797" />
    </linearGradient>
    <linearGradient
       inkscape:collect="always"
       xlink:href="#linearGradient3793"
       id="linearGradient5402"
       gradientUnits="userSpaceOnUse"
       x1="500"
       y1="172.36218"
       x2="500"
       y2="52.362183" />
  </defs>
  <sodipodi:namedview
     id="base"
     pagecolor="#ffffff"
     bordercolor="#666666"
     borderopacity="1.0"
     inkscape:pageopacity="0.0"
     inkscape:pageshadow="2"
     inkscape:zoom="0.49497475"
     inkscape:cx="955.86476"
     inkscape:cy="689.43238"
     inkscape:document-units="px"
     inkscape:current-layer="g4589"
     showgrid="true"
     fit-margin-top="5"
     fit-margin-left="5"
     fit-margin-right="5"
     fit-margin-bottom="5"
     inkscape:window-width="1680"
     inkscape:window-height="991"
     inkscape:window-x="0"
     inkscape:window-y="27"
     inkscape:window-maximized="1">
    <inkscape:grid
       type="xygrid"
       id="grid2987"
       empspacing="5"
       visible="true"
       enabled="true"
       snapvisiblegridlinesonly="true"
       units="mm"
       originx="-1.1217231e-06mm"
       originy="-11.288891mm" />
  </sodipodi:namedview>
  <metadata
     id="metadata7">
    <rdf:RDF>
      <cc:Work
         rdf:about="">
        <dc:format>image/svg+xml</dc:format>
        <dc:type
           rdf:resource="http://purl.org/dc/dcmitype/StillImage" />
        <dc:title />
      </cc:Work>
    </rdf:RDF>
  </metadata>
  <g
     inkscape:label="Ebene 1"
     inkscape:groupmode="layer"
     id="layer1"
     transform="translate(-183.56332,324.72614)">
    <path
       style="fill:#3465a4;stroke:#204a87;stroke-width:1.43668091px;stroke-linecap:butt;stroke-linejoin:miter;stroke-opacity:1"
       d="m 926.56332,-69.741764 181.99998,0 0,-44.229686 98,73.716146 -98,73.71615 0,-44.22969 -181.99998,0 z"
       id="path3763"
       inkscape:connector-curvature="0"
       sodipodi:nodetypes="cccccccc" />
    <text
       xml:space="preserve"
       style="font-size:20px;font-style:normal;font-variant:normal;font-weight:bold;font-stretch:normal;text-align:start;line-height:125%;letter-spacing:0px;word-spacing:0px;writing-mode:lr-tb;text-anchor:start;fill:#eeeeec;fill-opacity:1;stroke:none;font-family:Droid Sans;-inkscape-font-specification:Droid Sans Bold"
       x="938.56329"
       y="-42.75531"
       id="text3765"
       sodipodi:linespacing="125%"><tspan
         sodipodi:role="line"
         x="938.56329"
         y="-42.75531"
         id="tspan5347">Running JJTree generated </tspan><tspan
         sodipodi:role="line"
         x="938.56329"
         y="-17.75531"
         id="tspan5351">Parser creates AST</tspan></text>
    <flowRoot
       xml:space="preserve"
       id="flowRoot3988"
       style="font-size:20px;font-style:normal;font-variant:normal;font-weight:bold;font-stretch:normal;text-align:start;line-height:125%;letter-spacing:0px;word-spacing:0px;writing-mode:lr-tb;text-anchor:start;fill:#000000;fill-opacity:1;stroke:none;font-family:Droid Sans;-inkscape-font-specification:Droid Sans Bold"
       transform="translate(148.56332,152.41415)"><flowRegion
         id="flowRegion3990"><rect
           id="rect3992"
           width="255.71428"
           height="270"
           x="38.57143"
           y="-374.44162" /></flowRegion><flowPara
         id="flowPara3994" /></flowRoot>    <text
       xml:space="preserve"
       style="font-size:20px;font-style:normal;font-variant:normal;font-weight:bold;font-stretch:normal;text-align:start;line-height:125%;letter-spacing:0px;word-spacing:0px;writing-mode:lr-tb;text-anchor:start;fill:#000000;fill-opacity:1;stroke:none;font-family:Courier New;-inkscape-font-specification:Courier New Bold"
       x="188.56332"
       y="-247.74176"
       id="text4042"
       sodipodi:linespacing="125%"><tspan
         sodipodi:role="line"
         id="tspan4044"
         x="188.56332"
         y="-247.74176">/**</tspan><tspan
         sodipodi:role="line"
         x="188.56332"
         y="-222.74176"
         id="tspan4046"> * The Segment header for compressed and uncompressed cases</tspan><tspan
         sodipodi:role="line"
         x="188.56332"
         y="-197.74176"
         id="tspan4048"> * is implemented directly and is not declared here</tspan><tspan
         sodipodi:role="line"
         x="188.56332"
         y="-172.74176"
         id="tspan4050"> */</tspan><tspan
         sodipodi:role="line"
         x="188.56332"
         y="-147.74176"
         id="tspan4052">segment LSGSegment {</tspan><tspan
         sodipodi:role="line"
         x="188.56332"
         y="-122.74176"
         id="tspan4054">    { segmentType: 1, compressed: true};</tspan><tspan
         sodipodi:role="line"
         x="188.56332"
         y="-97.74176"
         id="tspan4056" /><tspan
         sodipodi:role="line"
         x="188.56332"
         y="-72.74176"
         id="tspan4058">    /** 7.2.1.1.1.1 Base Node Element */</tspan><tspan
         sodipodi:role="line"
         x="188.56332"
         y="-47.74176"
         id="tspan4060">    entity BaseNodeElement extends ElementHeader {</tspan><tspan
         sodipodi:role="line"
         x="188.56332"
         y="-22.74176"
         id="tspan4062">        ObjectTypeID : 0x10dd1035, 0x2ac8, 0x11d1, 0x9b, ;</tspan><tspan
         sodipodi:role="line"
         x="188.56332"
         y="2.2582397"
         id="tspan4064">        var BaseNodeData baseNodeData;</tspan><tspan
         sodipodi:role="line"
         x="188.56332"
         y="27.25824"
         id="tspan4066">    }</tspan><tspan
         sodipodi:role="line"
         x="188.56332"
         y="52.25824"
         id="tspan4068" /><tspan
         sodipodi:role="line"
         x="188.56332"
         y="77.25824"
         id="tspan4070">    /** 7.2.1.1.1.1.1 Base Node Data */</tspan><tspan
         sodipodi:role="line"
         x="188.56332"
         y="102.25824"
         id="tspan4072">    entity BaseNodeData {         </tspan><tspan
         sodipodi:role="line"
         x="188.56332"
         y="127.25824"
         id="tspan4074">        var I16 versionNumber;</tspan><tspan
         sodipodi:role="line"
         x="188.56332"
         y="152.25824"
         id="tspan4082">        </tspan></text>
    <g
       id="g4558">
      <rect
         y="-227.74176"
         x="1272.5634"
         height="120"
         width="339.99997"
         id="rect4126"
         style="color:#000000;fill:#eeeeec;fill-opacity:1;fill-rule:nonzero;stroke:#204a87;stroke-width:2.5;stroke-linecap:butt;stroke-linejoin:miter;stroke-miterlimit:4;stroke-opacity:1;stroke-dasharray:none;stroke-dashoffset:0;marker:none;visibility:visible;display:inline;overflow:visible;enable-background:accumulate" />
      <text
         sodipodi:linespacing="125%"
         id="text4128"
         y="-187.74176"
         x="1292.5634"
         style="font-size:20px;font-style:normal;font-variant:normal;font-weight:bold;font-stretch:normal;text-align:start;line-height:125%;letter-spacing:0px;word-spacing:0px;writing-mode:lr-tb;text-anchor:start;fill:#000000;fill-opacity:1;stroke:none;font-family:Droid Sans;-inkscape-font-specification:Droid Sans Bold"
         xml:space="preserve"><tspan
           y="-187.74176"
           x="1292.5634"
           id="tspan4130"
           sodipodi:role="line">FormalComment</tspan><tspan
           id="tspan4132"
           y="-162.74176"
           x="1292.5634"
           sodipodi:role="line" /></text>
      <text
         xml:space="preserve"
         style="font-size:16px;font-style:normal;font-variant:normal;font-weight:bold;font-stretch:normal;text-align:start;line-height:125%;letter-spacing:0px;word-spacing:0px;writing-mode:lr-tb;text-anchor:start;fill:#000000;fill-opacity:1;stroke:none;font-family:Courier;-inkscape-font-specification:Courier Bold"
         x="1292.5634"
         y="-147.74176"
         id="text4134"
         sodipodi:linespacing="125%"><tspan
           sodipodi:role="line"
           id="tspan4136"
           x="1292.5634"
           y="-147.74176">/**</tspan><tspan
           sodipodi:role="line"
           x="1292.5634"
           y="-127.74176"
           id="tspan4166"> * The Segment header for</tspan><tspan
           sodipodi:role="line"
           x="1292.5634"
           y="-107.74176"
           id="tspan4168">        </tspan></text>
    </g>
    <flowRoot
       xml:space="preserve"
       id="flowRoot4170"
       style="font-size:20px;font-style:normal;font-variant:normal;font-weight:bold;font-stretch:normal;text-align:start;line-height:125%;letter-spacing:0px;word-spacing:0px;writing-mode:lr-tb;text-anchor:start;fill:#000000;fill-opacity:1;stroke:none;font-family:Droid Sans;-inkscape-font-specification:Droid Sans Bold"
       transform="translate(148.56332,152.41415)"><flowRegion
         id="flowRegion4172"><rect
           id="rect4174"
           width="135.71428"
           height="268.57144"
           x="447.14285"
           y="196.98694" /></flowRegion><flowPara
         id="flowPara4176" /></flowRoot>    <flowRoot
       xml:space="preserve"
       id="flowRoot4178"
       style="font-size:20px;font-style:normal;font-variant:normal;font-weight:bold;font-stretch:normal;text-align:start;line-height:125%;letter-spacing:0px;word-spacing:0px;writing-mode:lr-tb;text-anchor:start;fill:#000000;fill-opacity:1;stroke:none;font-family:Droid Sans;-inkscape-font-specification:Droid Sans Bold"
       transform="translate(148.56332,152.41415)"><flowRegion
         id="flowRegion4180"><rect
           id="rect4182"
           width="187.14285"
           height="245.71428"
           x="537.14288"
           y="209.84409" /></flowRegion><flowPara
         id="flowPara4184" /></flowRoot>    <g
       id="g4568">
      <rect
         style="color:#000000;fill:#eeeeec;fill-opacity:1;fill-rule:nonzero;stroke:#204a87;stroke-width:2.5;stroke-linecap:butt;stroke-linejoin:miter;stroke-miterlimit:4;stroke-opacity:1;stroke-dasharray:none;stroke-dashoffset:0;marker:none;visibility:visible;display:inline;overflow:visible;enable-background:accumulate"
         id="rect4305"
         width="339.99997"
         height="100"
         x="1272.5634"
         y="-67.74176" />
      <text
         xml:space="preserve"
         style="font-size:20px;font-style:normal;font-variant:normal;font-weight:bold;font-stretch:normal;text-align:start;line-height:125%;letter-spacing:0px;word-spacing:0px;writing-mode:lr-tb;text-anchor:start;fill:#000000;fill-opacity:1;stroke:none;font-family:Droid Sans;-inkscape-font-specification:Droid Sans Bold"
         x="1292.5634"
         y="-27.741768"
         id="text4307"
         sodipodi:linespacing="125%"><tspan
           sodipodi:role="line"
           x="1292.5634"
           y="-27.741768"
           id="tspan4311">Segment</tspan></text>
      <text
         sodipodi:linespacing="125%"
         id="text4313"
         y="12.25824"
         x="1292.5634"
         style="font-size:16px;font-style:normal;font-variant:normal;font-weight:bold;font-stretch:normal;text-align:start;line-height:125%;letter-spacing:0px;word-spacing:0px;writing-mode:lr-tb;text-anchor:start;fill:#000000;fill-opacity:1;stroke:none;font-family:Courier;-inkscape-font-specification:Courier Bold"
         xml:space="preserve"><tspan
           id="tspan4319"
           y="12.25824"
           x="1292.5634"
           sodipodi:role="line">LSGSegment        </tspan></text>
    </g>
    <g
       id="g4575"
       transform="translate(-44.000034,-39.999989)">
      <text
         sodipodi:linespacing="125%"
         id="text3982"
         y="142.31621"
         x="1371.4008"
         style="font-size:22px;font-style:normal;font-variant:normal;font-weight:bold;font-stretch:normal;text-align:start;line-height:125%;letter-spacing:0px;word-spacing:0px;writing-mode:lr-tb;text-anchor:start;fill:#000000;fill-opacity:1;stroke:none;font-family:Droid Sans;-inkscape-font-specification:Droid Sans Bold"
         xml:space="preserve"><tspan
           y="142.31621"
           x="1371.4008"
           id="tspan3984"
           sodipodi:role="line">.java</tspan></text>
      <rect
         y="92.258217"
         x="1372.5634"
         height="60.000011"
         width="339.99997"
         id="rect4328"
         style="color:#000000;fill:#eeeeec;fill-opacity:1;fill-rule:nonzero;stroke:#204a87;stroke-width:2.5;stroke-linecap:butt;stroke-linejoin:miter;stroke-miterlimit:4;stroke-opacity:1;stroke-dasharray:none;stroke-dashoffset:0;marker:none;visibility:visible;display:inline;overflow:visible;enable-background:accumulate" />
      <text
         sodipodi:linespacing="125%"
         id="text4330"
         y="132.25822"
         x="1392.5634"
         style="font-size:20px;font-style:normal;font-variant:normal;font-weight:bold;font-stretch:normal;text-align:start;line-height:125%;letter-spacing:0px;word-spacing:0px;writing-mode:lr-tb;text-anchor:start;fill:#000000;fill-opacity:1;stroke:none;font-family:Droid Sans;-inkscape-font-specification:Droid Sans Bold"
         xml:space="preserve"><tspan
           id="tspan4332"
           y="132.25822"
           x="1392.5634"
           sodipodi:role="line">GenericParameterDeclaration</tspan></text>
    </g>
    <g
       id="g4582"
       transform="translate(-104.00003,-40.000004)">
      <rect
         y="172.25824"
         x="1492.5634"
         height="99.999992"
         width="339.99997"
         id="rect4401"
         style="color:#000000;fill:#eeeeec;fill-opacity:1;fill-rule:nonzero;stroke:#204a87;stroke-width:2.5;stroke-linecap:butt;stroke-linejoin:miter;stroke-miterlimit:4;stroke-opacity:1;stroke-dasharray:none;stroke-dashoffset:0;marker:none;visibility:visible;display:inline;overflow:visible;enable-background:accumulate" />
      <text
         sodipodi:linespacing="125%"
         id="text4403"
         y="212.25824"
         x="1512.5634"
         style="font-size:20px;font-style:normal;font-variant:normal;font-weight:bold;font-stretch:normal;text-align:start;line-height:125%;letter-spacing:0px;word-spacing:0px;writing-mode:lr-tb;text-anchor:start;fill:#000000;fill-opacity:1;stroke:none;font-family:Droid Sans;-inkscape-font-specification:Droid Sans Bold"
         xml:space="preserve"><tspan
           id="tspan4405"
           y="212.25824"
           x="1512.5634"
           sodipodi:role="line">ParameterNameAndValue</tspan></text>
      <text
         xml:space="preserve"
         style="font-size:16px;font-style:normal;font-variant:normal;font-weight:bold;font-stretch:normal;text-align:start;line-height:125%;letter-spacing:0px;word-spacing:0px;writing-mode:lr-tb;text-anchor:start;fill:#000000;fill-opacity:1;stroke:none;font-family:Courier;-inkscape-font-specification:Courier Bold"
         x="1512.5634"
         y="252.25824"
         id="text4407"
         sodipodi:linespacing="125%"><tspan
           sodipodi:role="line"
           x="1512.5634"
           y="252.25824"
           id="tspan4409">segmentType        </tspan></text>
    </g>
    <g
       id="g4589"
       transform="translate(-104.00003,-40.000004)">
      <rect
         style="color:#000000;fill:#eeeeec;fill-opacity:1;fill-rule:nonzero;stroke:#204a87;stroke-width:2.5;stroke-linecap:butt;stroke-linejoin:miter;stroke-miterlimit:4;stroke-opacity:1;stroke-dasharray:none;stroke-dashoffset:0;marker:none;visibility:visible;display:inline;overflow:visible;enable-background:accumulate"
         id="rect4411"
         width="339.99997"
         height="99.999992"
         x="1552.5634"
         y="292.25824" />
      <text
         xml:space="preserve"
         style="font-size:20px;font-style:normal;font-variant:normal;font-weight:bold;font-stretch:normal;text-align:start;line-height:125%;letter-spacing:0px;word-spacing:0px;writing-mode:lr-tb;text-anchor:start;fill:#000000;fill-opacity:1;stroke:none;font-family:Droid Sans;-inkscape-font-specification:Droid Sans Bold"
         x="1572.5634"
         y="332.25824"
         id="text4413"
         sodipodi:linespacing="125%"><tspan
           sodipodi:role="line"
           x="1572.5634"
           y="332.25824"
           id="tspan4415">ParameterValue</tspan></text>
      <text
         sodipodi:linespacing="125%"
         id="text4417"
         y="372.25824"
         x="1572.5634"
         style="font-size:16px;font-style:normal;font-variant:normal;font-weight:bold;font-stretch:normal;text-align:start;line-height:125%;letter-spacing:0px;word-spacing:0px;writing-mode:lr-tb;text-anchor:start;fill:#000000;fill-opacity:1;stroke:none;font-family:Courier;-inkscape-font-specification:Courier Bold"
         xml:space="preserve"><tspan
           id="tspan4419"
           y="372.25824"
           x="1572.5634"
           sodipodi:role="line">1        </tspan></text>
    </g>
    <text
       xml:space="preserve"
       style="font-size:20px;font-style:normal;font-variant:normal;font-weight:bold;font-stretch:normal;text-align:start;line-height:125%;letter-spacing:0px;word-spacing:0px;writing-mode:lr-tb;text-anchor:start;fill:#000000;fill-opacity:1;stroke:none;font-family:Droid Sans;-inkscape-font-specification:Droid Sans Bold"
       x="1263.5634"
       y="-301.49176"
       id="text5416"
       sodipodi:linespacing="125%"><tspan
         sodipodi:role="line"
         id="tspan5418"
         x="1263.5634"
         y="-301.49176"
         style="font-size:24px;font-style:normal;font-variant:normal;font-weight:bold;font-stretch:normal;text-align:start;line-height:125%;writing-mode:lr-tb;text-anchor:start;font-family:Droid Sans;-inkscape-font-specification:Droid Sans Bold">Abstract Syntax Tree</tspan></text>
    <text
       sodipodi:linespacing="125%"
       id="text3348"
       y="-292.43665"
       x="396.16174"
       style="font-size:20px;font-style:normal;font-variant:normal;font-weight:bold;font-stretch:normal;text-align:start;line-height:125%;letter-spacing:0px;word-spacing:0px;writing-mode:lr-tb;text-anchor:start;fill:#000000;fill-opacity:1;stroke:none;font-family:Droid Sans;-inkscape-font-specification:Droid Sans Bold"
       xml:space="preserve"><tspan
         style="font-size:24px;font-style:normal;font-variant:normal;font-weight:bold;font-stretch:normal;text-align:start;line-height:125%;writing-mode:lr-tb;text-anchor:start;font-family:Droid Sans;-inkscape-font-specification:Droid Sans Bold"
         y="-292.43665"
         x="396.16174"
         id="tspan3350"
         sodipodi:role="line">File to Parse</tspan></text>
  </g>
</svg>
